<?xml version="1.0" encoding="iso-8859-1"?>
<!-- Generator: Adobe Illustrator 21.0.0, SVG Export Plug-In . SVG Version: 6.00 Build 0)  -->
<svg xmlns="http://www.w3.org/2000/svg" xmlns:xlink="http://www.w3.org/1999/xlink" version="1.1" id="Capa_1" x="0px" y="0px" viewBox="0 0 512 512" style="enable-background:new 0 0 512 512;" xml:space="preserve" width="512" height="512">
<g>
	<g>
		<g>
			<g>
				<g>
					<g>
						<g>
							<g>
								<g>
									<circle style="fill:#65B1FC;" cx="256" cy="256" r="256"/>
								</g>
							</g>
						</g>
					</g>
				</g>
			</g>
		</g>
	</g>
	<path style="fill:#5C8EFF;" d="M512,256c0-11.195-0.724-22.22-2.117-33.036l-54.246-54.246l-159.851,15l-21.371,27.997   l60.926,60.926l-125.865,25.526L173.361,435l76.927,76.928c1.9,0.042,3.802,0.072,5.711,0.072C397.385,512,512,397.385,512,256z"/>
	<polygon style="fill:#555A66;" points="274.415,168.718 274.415,211.714 304.415,211.714 304.415,198.718 350.025,198.718    350.025,295.3 331.408,295.3 331.408,325.3 398.644,325.3 398.644,295.3 380.025,295.3 380.025,198.718 425.637,198.718    425.637,211.714 455.637,211.714 455.637,168.718  "/>
	<polygon style="fill:#333940;" points="363.048,168.718 363.048,325.3 398.644,325.3 398.644,295.3 380.025,295.3 380.025,198.718    425.637,198.718 425.637,211.714 455.637,211.714 455.637,168.718  "/>
	<g>
		<polygon style="fill:#FFFFFF;" points="335.926,272.434 67.363,166.437 173.361,435 208.626,353.288 281.156,425.818     326.744,380.23 254.214,307.699   "/>
	</g>
	<g>
		<polygon style="fill:#DCE1EB;" points="326.744,380.229 254.214,307.699 335.926,272.434 67.363,166.437 304.361,402.613   "/>
	</g>
</g>















</svg>
